<?xml version="1.0" encoding="UTF-8" standalone="no"?>
<svg
   xmlns:dc="http://purl.org/dc/elements/1.1/"
   xmlns:cc="http://creativecommons.org/ns#"
   xmlns:rdf="http://www.w3.org/1999/02/22-rdf-syntax-ns#"
   xmlns:svg="http://www.w3.org/2000/svg"
   xmlns="http://www.w3.org/2000/svg"
   xmlns:sodipodi="http://sodipodi.sourceforge.net/DTD/sodipodi-0.dtd"
   xmlns:inkscape="http://www.inkscape.org/namespaces/inkscape"
   inkscape:version="1.0 (1.0+r73+1)"
   sodipodi:docname="icosahedron_a.svg"
   id="svg252"
   version="1.1"
   viewBox="0 0 160 160"
   height="160mm"
   width="160mm">
  <defs
     id="defs246" />
  <sodipodi:namedview
     inkscape:window-maximized="1"
     inkscape:window-y="0"
     inkscape:window-x="0"
     inkscape:window-height="1055"
     inkscape:window-width="1920"
     showgrid="false"
     inkscape:document-rotation="0"
     inkscape:current-layer="layer1"
     inkscape:document-units="mm"
     inkscape:cy="372.88899"
     inkscape:cx="244.77927"
     inkscape:zoom="0.98994949"
     inkscape:pageshadow="2"
     inkscape:pageopacity="0.0"
     borderopacity="1.0"
     bordercolor="#666666"
     pagecolor="#ffffff"
     id="base" />
  <metadata
     id="metadata249">
    <rdf:RDF>
      <cc:Work
         rdf:about="">
        <dc:format>image/svg+xml</dc:format>
        <dc:type
           rdf:resource="http://purl.org/dc/dcmitype/StillImage" />
        <dc:title></dc:title>
      </cc:Work>
    </rdf:RDF>
  </metadata>
  <g
     id="layer1"
     inkscape:groupmode="layer"
     inkscape:label="Calque 1">
    <path
       d="m 69.2305,128.90597 11.065557,2.96503 11.065557,-2.96503 0.571616,5.43859 35.1715,15.65934 7.11995,-8.7924 -2.35189,-22.37674 -8.79241,-7.11993 -4.99574,-2.22428 6.23933,-9.607705 0.59956,-11.440213 5.34902,1.136967 25.76153,-28.611088 -11.89032,-10.706079 -16.27989,-3.460398 -9.48847,6.161886 -3.65916,4.063913 -7.20943,-8.90292 -10.695014,-4.105431 2.734261,-4.735877 -19.25,-33.3419792 -19.25,33.3419792 2.734261,4.735877 -10.695011,4.105431 -7.209435,8.90292 L 42.216716,52.96392 32.728242,46.802034 16.44835,50.262432 4.5580337,60.968511 3.96592,72.266721 l 15.05544,16.720767 11.298203,0.592111 5.34902,-1.136967 0.599556,11.440213 6.239336,9.607705 -4.995744,2.22428 -4.024347,38.28907 10.562257,4.05447 20.554773,-9.15157 4.05447,-10.56224 0.571616,-5.43859"
       style="fill:none;stroke:#0000ff;stroke-width:0.25;stroke-linecap:round"
       id="path140" />
    <path
       d="M 69.2305,128.90597 70.671057,115.2"
       style="fill:none;stroke:#0000ff;stroke-width:0.25;stroke-linecap:round"
       id="path142" />
    <path
       d="M 91.361614,128.90597 89.921057,115.2"
       style="fill:none;stroke:#0000ff;stroke-width:0.25;stroke-linecap:round"
       id="path144" />
    <path
       d="m 118.08464,109.49055 -12.59001,-5.60541"
       style="fill:none;stroke:#0000ff;stroke-width:0.25;stroke-linecap:round"
       id="path146" />
    <path
       d="M 124.92353,88.442632 111.44321,85.5773"
       style="fill:none;stroke:#0000ff;stroke-width:0.25;stroke-linecap:round"
       id="path148" />
    <path
       d="m 114.71624,57.027833 -9.22161,10.241624"
       style="fill:none;stroke:#0000ff;stroke-width:0.25;stroke-linecap:round"
       id="path150" />
    <path
       d="M 96.811796,44.019482 89.921057,55.954604"
       style="fill:none;stroke:#0000ff;stroke-width:0.25;stroke-linecap:round"
       id="path152" />
    <path
       d="m 63.780318,44.019482 6.890739,11.935122"
       style="fill:none;stroke:#0000ff;stroke-width:0.25;stroke-linecap:round"
       id="path154" />
    <path
       d="M 45.875872,57.027833 55.09748,67.269457"
       style="fill:none;stroke:#0000ff;stroke-width:0.25;stroke-linecap:round"
       id="path156" />
    <path
       d="M 35.668583,88.442632 49.148903,85.5773"
       style="fill:none;stroke:#0000ff;stroke-width:0.25;stroke-linecap:round"
       id="path158" />
    <path
       d="M 42.507475,109.49055 55.09748,103.88514"
       style="fill:none;stroke:#0000ff;stroke-width:0.25;stroke-linecap:round"
       id="path160" />
    <path
       d="m 70.671057,115.2 9.625,16.671 9.625,-16.671 15.573573,-11.31486 18.82934,-4.002295 -12.88076,-14.305545 -5.94858,-18.307843 2.01218,-19.144544 -17.585753,7.829691 h -19.25 L 53.085307,48.124913 55.09748,67.269457 49.148903,85.5773 36.268139,99.882845 55.09748,103.88514 70.671057,115.2"
       style="fill:none;stroke:#ff0000;stroke-width:0.25;stroke-linecap:round"
       id="path164" />
    <path
       d="m 70.671057,115.2 h 19.25"
       style="fill:none;stroke:#ff0000;stroke-width:0.25;stroke-linecap:round"
       id="path166" />
    <path
       d="M 105.49463,103.88514 111.44321,85.5773"
       style="fill:none;stroke:#ff0000;stroke-width:0.25;stroke-linecap:round"
       id="path168" />
    <path
       d="M 105.49463,67.269457 89.921057,55.954604"
       style="fill:none;stroke:#ff0000;stroke-width:0.25;stroke-linecap:round"
       id="path170" />
    <path
       d="M 70.671057,55.954604 55.09748,67.269457"
       style="fill:none;stroke:#ff0000;stroke-width:0.25;stroke-linecap:round"
       id="path172" />
    <path
       d="m 49.148903,85.5773 5.948577,18.30784"
       style="fill:none;stroke:#ff0000;stroke-width:0.25;stroke-linecap:round"
       id="path174" />
    <path
       d="m 37.511731,111.71483 31.147153,22.62973"
       style="fill:none;stroke:#ff0000;stroke-width:0.25;stroke-linecap:round"
       id="path176" />
    <path
       d="m 68.658884,134.34456 -35.1715,15.65934"
       style="fill:none;stroke:#ff0000;stroke-width:0.25;stroke-linecap:round"
       id="path178" />
    <path
       d="m 91.93323,134.34456 31.14715,-22.62973"
       style="fill:none;stroke:#ff0000;stroke-width:0.25;stroke-linecap:round"
       id="path180" />
    <path
       d="m 123.08038,111.71483 4.02435,38.28907"
       style="fill:none;stroke:#ff0000;stroke-width:0.25;stroke-linecap:round"
       id="path182" />
    <path
       d="M 130.27255,89.579599 118.3754,52.96392"
       style="fill:none;stroke:#ff0000;stroke-width:0.25;stroke-linecap:round"
       id="path184" />
    <path
       d="m 118.3754,52.96392 37.65868,8.004591"
       style="fill:none;stroke:#ff0000;stroke-width:0.25;stroke-linecap:round"
       id="path186" />
    <path
       d="m 99.546057,39.283605 h -38.5"
       style="fill:none;stroke:#ff0000;stroke-width:0.25;stroke-linecap:round"
       id="path188" />
    <path
       d="M 42.216716,52.96392 30.319563,89.579599"
       style="fill:none;stroke:#ff0000;stroke-width:0.25;stroke-linecap:round"
       id="path190" />
    <path
       d="M 30.319563,89.579599 4.5580337,60.968511"
       style="fill:none;stroke:#ff0000;stroke-width:0.25;stroke-linecap:round"
       id="path192" />
    <path
       d="M 4.5580337,60.968511 42.216716,52.96392"
       style="fill:none;stroke:#ff0000;stroke-width:0.25;stroke-linecap:round"
       id="path194" />
  </g>
</svg>
