999
dxfrw 0.6.3
  0
SECTION
  2
HEADER
  9
$ACADVER
  1
AC1021
  9
$DWGCODEPAGE
  3
ANSI_1252
  9
$INSBASE
 10
0
 20
0
 30
0
  9
$EXTMIN
 10
-76.33013769532558
 20
-68.48108180610382
 30
0
  9
$EXTMAX
 10
75.73802394237731
 20
79.63567111386315
 30
0
  9
$LIMMIN
 10
0
 20
0
  9
$LIMMAX
 10
420
 20
297
  9
$ORTHOMODE
 70
    0
  9
$REGENMODE
 70
    1
  9
$FILLMODE
 70
    1
  9
$QTEXTMODE
 70
    0
  9
$MIRRTEXT
 70
    0
  9
$LTSCALE
 40
1
  9
$ATTMODE
 70
    0
  9
$TEXTSIZE
 40
2.5
  9
$TRACEWID
 40
15.68
  9
$TEXTSTYLE
  7
STANDARD
  9
$CLAYER
  8
pli
  9
$CELTYPE
  6
BYLAYER
  9
$CECOLOR
 62
  256
  9
$CELTSCALE
 40
1
  9
$DISPSILH
 70
    0
  9
$DIMSCALE
 40
2.5
  9
$DIMASZ
 40
2.5
  9
$DIMEXO
 40
0.625
  9
$DIMDLI
 40
3.75
  9
$DIMRND
 40
0
  9
$DIMDLE
 40
0
  9
$DIMEXE
 40
1.25
  9
$DIMTP
 40
0
  9
$DIMTM
 40
0
  9
$DIMTXT
 40
2.5
  9
$DIMCEN
 40
2.5
  9
$DIMTSZ
 40
0
  9
$DIMTOL
 70
    0
  9
$DIMLIM
 70
    0
  9
$DIMTIH
 70
    0
  9
$DIMTOH
 70
    0
  9
$DIMSE1
 70
    0
  9
$DIMSE2
 70
    0
  9
$DIMTAD
 70
    1
  9
$DIMZIN
 70
    8
  9
$DIMBLK
  1

  9
$DIMASO
 70
    1
  9
$DIMSHO
 70
    1
  9
$DIMPOST
  1

  9
$DIMAPOST
  1

  9
$DIMALT
 70
    0
  9
$DIMALTD
 70
    3
  9
$DIMALTF
 40
0.03937
  9
$DIMLFAC
 40
1
  9
$DIMTOFL
 70
    1
  9
$DIMTVP
 40
0
  9
$DIMTIX
 70
    0
  9
$DIMSOXD
 70
    0
  9
$DIMSAH
 70
    0
  9
$DIMBLK1
  1

  9
$DIMBLK2
  1

  9
$DIMSTYLE
  2
STANDARD
  9
$DIMCLRD
 70
    0
  9
$DIMCLRE
 70
    0
  9
$DIMCLRT
 70
    0
  9
$DIMTFAC
 40
1
  9
$DIMGAP
 40
0.625
  9
$DIMJUST
 70
    0
  9
$DIMSD1
 70
    0
  9
$DIMSD2
 70
    0
  9
$DIMTOLJ
 70
    0
  9
$DIMTZIN
 70
    8
  9
$DIMALTZ
 70
    0
  9
$DIMALTTZ
 70
    0
  9
$DIMUPT
 70
    0
  9
$DIMDEC
 70
    2
  9
$DIMTDEC
 70
    2
  9
$DIMALTU
 70
    2
  9
$DIMALTTD
 70
    3
  9
$DIMTXSTY
  7
STANDARD
  9
$DIMAUNIT
 70
    0
  9
$DIMADEC
 70
    0
  9
$DIMALTRND
 40
0
  9
$DIMAZIN
 70
    0
  9
$DIMDSEP
 70
   44
  9
$DIMATFIT
 70
    3
  9
$DIMFRAC
 70
    0
  9
$DIMLDRBLK
  1
STANDARD
  9
$DIMLUNIT
 70
    2
  9
$DIMLWD
 70
   -2
  9
$DIMLWE
 70
   -2
  9
$DIMTMOVE
 70
    0
  9
$DIMFXL
 40
1
  9
$DIMFXLON
 70
    0
  9
$DIMJOGANG
 40
0.7854
  9
$DIMTFILL
 70
    0
  9
$DIMTFILLCLR
 70
    0
  9
$DIMARCSYM
 70
    0
  9
$DIMLTYPE
  6

  9
$DIMLTEX1
  6

  9
$DIMLTEX2
  6

  9
$LUNITS
 70
    2
  9
$LUPREC
 70
    4
  9
$SKETCHINC
 40
1
  9
$FILLETRAD
 40
0
  9
$AUNITS
 70
    0
  9
$AUPREC
 70
    2
  9
$MENU
  1
.
  9
$ELEVATION
 40
0
  9
$PELEVATION
 40
0
  9
$THICKNESS
 40
0
  9
$LIMCHECK
 70
    0
  9
$CHAMFERA
 40
0
  9
$CHAMFERB
 40
0
  9
$CHAMFERC
 40
0
  9
$CHAMFERD
 40
0
  9
$SKPOLY
 70
    0
  9
$USRTIMER
 70
    1
  9
$ANGBASE
 50
0
  9
$ANGDIR
 70
    0
  9
$PDMODE
 70
   34
  9
$PDSIZE
 40
0
  9
$PLINEWID
 40
0
  9
$SPLFRAME
 70
    0
  9
$SPLINETYPE
 70
    2
  9
$SPLINESEGS
 70
    8
  9
$HANDSEED
  5
20000
  9
$SURFTAB1
 70
    6
  9
$SURFTAB2
 70
    6
  9
$SURFTYPE
 70
    6
  9
$SURFU
 70
    6
  9
$SURFV
 70
    6
  9
$UCSBASE
  2

  9
$UCSNAME
  2

  9
$UCSORG
 10
0
 20
0
 30
0
  9
$UCSXDIR
 10
1
 20
0
 30
0
  9
$UCSYDIR
 10
0
 20
1
 30
0
  9
$UCSORTHOREF
  2

  9
$UCSORTHOVIEW
 70
    0
  9
$UCSORGTOP
 10
0
 20
0
 30
0
  9
$UCSORGBOTTOM
 10
0
 20
0
 30
0
  9
$UCSORGLEFT
 10
0
 20
0
 30
0
  9
$UCSORGRIGHT
 10
0
 20
0
 30
0
  9
$UCSORGFRONT
 10
0
 20
0
 30
0
  9
$UCSORGBACK
 10
0
 20
0
 30
0
  9
$PUCSBASE
  2

  9
$PUCSNAME
  2

  9
$PUCSORG
 10
0
 20
0
 30
0
  9
$PUCSXDIR
 10
1
 20
0
 30
0
  9
$PUCSYDIR
 10
0
 20
1
 30
0
  9
$PUCSORTHOREF
  2

  9
$PUCSORTHOVIEW
 70
    0
  9
$PUCSORGTOP
 10
0
 20
0
 30
0
  9
$PUCSORGBOTTOM
 10
0
 20
0
 30
0
  9
$PUCSORGLEFT
 10
0
 20
0
 30
0
  9
$PUCSORGRIGHT
 10
0
 20
0
 30
0
  9
$PUCSORGFRONT
 10
0
 20
0
 30
0
  9
$PUCSORGBACK
 10
0
 20
0
 30
0
  9
$USERI1
 70
    0
  9
$USERI2
 70
    0
  9
$USERI3
 70
    0
  9
$USERI4
 70
    0
  9
$USERI5
 70
    0
  9
$USERR1
 40
0
  9
$USERR2
 40
0
  9
$USERR3
 40
0
  9
$USERR4
 40
0
  9
$USERR5
 40
0
  9
$WORLDVIEW
 70
    1
  9
$SHADEDGE
 70
    3
  9
$SHADEDIF
 70
   70
  9
$TILEMODE
 70
    1
  9
$MAXACTVP
 70
   64
  9
$PINSBASE
 10
0
 20
0
 30
0
  9
$PLIMCHECK
 70
    0
  9
$PEXTMIN
 10
0
 20
0
 30
0
  9
$PEXTMAX
 10
0
 20
0
 30
0
  9
$GRIDMODE
 70
    1
  9
$SNAPSTYLE
 70
    0
  9
$PLIMMIN
 10
0
 20
0
  9
$PLIMMAX
 10
210
 20
297
  9
$UNITMODE
 70
    0
  9
$VISRETAIN
 70
    1
  9
$PLINEGEN
 70
    0
  9
$PSLTSCALE
 70
    1
  9
$TREEDEPTH
 70
 3020
  9
$CMLSTYLE
  2
Standard
  9
$CMLJUST
 70
    0
  9
$CMLSCALE
 40
20
  9
$PROXYGRAPHICS
 70
    1
  9
$MEASUREMENT
 70
    1
  9
$CELWEIGHT
370
   -1
  9
$ENDCAPS
280
    0
  9
$JOINSTYLE
280
    0
  9
$LWDISPLAY
290
    0
  9
$INSUNITS
 70
    4
  9
$HYPERLINKBASE
  1

  9
$STYLESHEET
  1

  9
$XEDIT
290
    1
  9
$CEPSNTYPE
380
    0
  9
$PSTYLEMODE
290
    1
  9
$EXTNAMES
290
    1
  9
$PSVPSCALE
 40
1
  9
$OLESTARTUP
290
    0
  9
$SORTENTS
280
  127
  9
$INDEXCTL
280
    0
  9
$HIDETEXT
280
    1
  9
$XCLIPFRAME
290
    0
  9
$HALOGAP
280
    0
  9
$OBSCOLOR
 70
  257
  9
$OBSLTYPE
280
    0
  9
$INTERSECTIONDISPLAY
280
    0
  9
$INTERSECTIONCOLOR
 70
  257
  9
$DIMASSOC
280
    1
  9
$PROJECTNAME
  1

  9
$CAMERADISPLAY
290
    0
  9
$LENSLENGTH
 40
50
  9
$CAMERAHEIGHT
 40
0
  9
$STEPSPERSEC
 40
2
  9
$STEPSIZE
 40
50
  9
$3DDWFPREC
 40
2
  9
$PSOLWIDTH
 40
5
  9
$PSOLHEIGHT
 40
80
  9
$LOFTANG1
 40
1.570796326794897
  9
$LOFTANG2
 40
1.570796326794897
  9
$LOFTMAG1
 40
0
  9
$LOFTMAG2
 40
0
  9
$LOFTPARAM
 70
    7
  9
$LOFTNORMALS
280
    1
  9
$LATITUDE
 40
1
  9
$LONGITUDE
 40
1
  9
$NORTHDIRECTION
 40
0
  9
$TIMEZONE
 70
-8000
  9
$LIGHTGLYPHDISPLAY
280
    1
  9
$TILEMODELIGHTSYNCH
280
    1
  9
$SOLIDHIST
280
    1
  9
$SHOWHIST
280
    1
  9
$DWFFRAME
280
    2
  9
$DGNFRAME
280
    0
  9
$REALWORLDSCALE
290
    1
  9
$INTERFERECOLOR
 62
    1
  9
$CSHADOW
280
    0
  9
$SHADOWPLANELOCATION
 40
0
  0
ENDSEC
  0
SECTION
  2
CLASSES
  0
ENDSEC
  0
SECTION
  2
TABLES
  0
TABLE
  2
VPORT
  5
8
330
0
100
AcDbSymbolTable
 70
    1
  0
VPORT
  5
31
330
2
100
AcDbSymbolTableRecord
100
AcDbViewportTableRecord
  2
*ACTIVE
 70
    0
 10
0
 20
0
 11
1
 21
1
 12
56.75801322587476
 22
43.02779537566315
 13
0
 23
0
 14
10
 24
10
 15
10
 25
10
 16
0
 26
0
 36
1
 17
0
 27
0
 37
0
 40
165.7295309525542
 41
1.719953325554259
 42
50
 43
0
 44
0
 50
0
 51
0
 71
    0
 72
  100
 73
    1
 74
    3
 75
    0
 76
    1
 77
    0
 78
    0
281
    0
 65
    1
110
0
120
0
130
0
111
1
121
0
131
0
112
0
122
1
132
0
 79
    0
146
0
348
10020
 60
    7
 61
    5
292
1
282
    1
141
0
142
0
 63
  250
421
3358443
  0
ENDTAB
  0
TABLE
  2
LTYPE
  5
5
330
0
100
AcDbSymbolTable
 70
    4
  0
LTYPE
  5
14
330
5
100
AcDbSymbolTableRecord
100
AcDbLinetypeTableRecord
  2
ByBlock
 70
    0
  3

 72
   65
 73
    0
 40
0
  0
LTYPE
  5
15
330
5
100
AcDbSymbolTableRecord
100
AcDbLinetypeTableRecord
  2
ByLayer
 70
    0
  3

 72
   65
 73
    0
 40
0
  0
LTYPE
  5
16
330
5
100
AcDbSymbolTableRecord
100
AcDbLinetypeTableRecord
  2
Continuous
 70
    0
  3
Solid line
 72
   65
 73
    0
 40
0
  0
LTYPE
  5
32
330
5
100
AcDbSymbolTableRecord
100
AcDbLinetypeTableRecord
  2
DOT
 70
    0
  3
Dot . . . . . . . . . . . . . . . . . . . . . .
 72
   65
 73
    2
 40
6.35
 49
0
 74
    0
 49
-6.35
 74
    0
  0
LTYPE
  5
33
330
5
100
AcDbSymbolTableRecord
100
AcDbLinetypeTableRecord
  2
DOTTINY
 70
    0
  3
Dot (.15x) .....................................
 72
   65
 73
    2
 40
0.9525
 49
0
 74
    0
 49
-0.9525
 74
    0
  0
LTYPE
  5
34
330
5
100
AcDbSymbolTableRecord
100
AcDbLinetypeTableRecord
  2
DOT2
 70
    0
  3
Dot (.5x) .....................................
 72
   65
 73
    2
 40
3.175
 49
0
 74
    0
 49
-3.175
 74
    0
  0
LTYPE
  5
35
330
5
100
AcDbSymbolTableRecord
100
AcDbLinetypeTableRecord
  2
DOTX2
 70
    0
  3
Dot (2x) .  .  .  .  .  .  .  .  .  .  .  .  .
 72
   65
 73
    2
 40
12.7
 49
0
 74
    0
 49
-12.7
 74
    0
  0
LTYPE
  5
36
330
5
100
AcDbSymbolTableRecord
100
AcDbLinetypeTableRecord
  2
DASHED
 70
    0
  3
Dashed _ _ _ _ _ _ _ _ _ _ _ _ _ _ _ _ _
 72
   65
 73
    2
 40
19.05
 49
12.7
 74
    0
 49
-6.35
 74
    0
  0
LTYPE
  5
37
330
5
100
AcDbSymbolTableRecord
100
AcDbLinetypeTableRecord
  2
DASHEDTINY
 70
    0
  3
Dashed (.15x) _ _ _ _ _ _ _ _ _ _ _ _ _ _ _ _ _
 72
   65
 73
    2
 40
2.8575
 49
1.905
 74
    0
 49
-0.9525
 74
    0
  0
LTYPE
  5
38
330
5
100
AcDbSymbolTableRecord
100
AcDbLinetypeTableRecord
  2
DASHED2
 70
    0
  3
Dashed (.5x) _ _ _ _ _ _ _ _ _ _ _ _ _ _ _ _ _
 72
   65
 73
    2
 40
9.524999999999999
 49
6.35
 74
    0
 49
-3.175
 74
    0
  0
LTYPE
  5
39
330
5
100
AcDbSymbolTableRecord
100
AcDbLinetypeTableRecord
  2
DASHEDX2
 70
    0
  3
Dashed (2x) ____  ____  ____  ____  ____  ___
 72
   65
 73
    2
 40
38.09999999999999
 49
25.4
 74
    0
 49
-12.7
 74
    0
  0
LTYPE
  5
3A
330
5
100
AcDbSymbolTableRecord
100
AcDbLinetypeTableRecord
  2
DASHDOT
 70
    0
  3
Dash dot __ . __ . __ . __ . __ . __ . __ . __
 72
   65
 73
    4
 40
25.4
 49
12.7
 74
    0
 49
-6.35
 74
    0
 49
0
 74
    0
 49
-6.35
 74
    0
  0
LTYPE
  5
3B
330
5
100
AcDbSymbolTableRecord
100
AcDbLinetypeTableRecord
  2
DASHDOTTINY
 70
    0
  3
Dash dot (.15x) _._._._._._._._._._._._._._._.
 72
   65
 73
    4
 40
3.81
 49
1.905
 74
    0
 49
-0.9525
 74
    0
 49
0
 74
    0
 49
-0.9525
 74
    0
  0
LTYPE
  5
3C
330
5
100
AcDbSymbolTableRecord
100
AcDbLinetypeTableRecord
  2
DASHDOT2
 70
    0
  3
Dash dot (.5x) _._._._._._._._._._._._._._._.
 72
   65
 73
    4
 40
12.7
 49
6.35
 74
    0
 49
-3.175
 74
    0
 49
0
 74
    0
 49
-3.175
 74
    0
  0
LTYPE
  5
3D
330
5
100
AcDbSymbolTableRecord
100
AcDbLinetypeTableRecord
  2
DASHDOTX2
 70
    0
  3
Dash dot (2x) ____  .  ____  .  ____  .  ___
 72
   65
 73
    4
 40
50.8
 49
25.4
 74
    0
 49
-12.7
 74
    0
 49
0
 74
    0
 49
-12.7
 74
    0
  0
LTYPE
  5
3E
330
5
100
AcDbSymbolTableRecord
100
AcDbLinetypeTableRecord
  2
DIVIDE
 70
    0
  3
Divide ____ . . ____ . . ____ . . ____ . . ____
 72
   65
 73
    6
 40
31.75
 49
12.7
 74
    0
 49
-6.35
 74
    0
 49
0
 74
    0
 49
-6.35
 74
    0
 49
0
 74
    0
 49
-6.35
 74
    0
  0
LTYPE
  5
3F
330
5
100
AcDbSymbolTableRecord
100
AcDbLinetypeTableRecord
  2
DIVIDETINY
 70
    0
  3
Divide (.15x) __..__..__..__..__..__..__..__.._
 72
   65
 73
    6
 40
4.7625
 49
1.905
 74
    0
 49
-0.9525
 74
    0
 49
0
 74
    0
 49
-0.9525
 74
    0
 49
0
 74
    0
 49
-0.9525
 74
    0
  0
LTYPE
  5
40
330
5
100
AcDbSymbolTableRecord
100
AcDbLinetypeTableRecord
  2
DIVIDE2
 70
    0
  3
Divide (.5x) __..__..__..__..__..__..__..__.._
 72
   65
 73
    6
 40
15.875
 49
6.35
 74
    0
 49
-3.175
 74
    0
 49
0
 74
    0
 49
-3.175
 74
    0
 49
0
 74
    0
 49
-3.175
 74
    0
  0
LTYPE
  5
41
330
5
100
AcDbSymbolTableRecord
100
AcDbLinetypeTableRecord
  2
DIVIDEX2
 70
    0
  3
Divide (2x) ________  .  .  ________  .  .  _
 72
   65
 73
    6
 40
63.5
 49
25.4
 74
    0
 49
-12.7
 74
    0
 49
0
 74
    0
 49
-12.7
 74
    0
 49
0
 74
    0
 49
-12.7
 74
    0
  0
LTYPE
  5
42
330
5
100
AcDbSymbolTableRecord
100
AcDbLinetypeTableRecord
  2
BORDER
 70
    0
  3
Border __ __ . __ __ . __ __ . __ __ . __ __ .
 72
   65
 73
    6
 40
44.45
 49
12.7
 74
    0
 49
-6.35
 74
    0
 49
12.7
 74
    0
 49
-6.35
 74
    0
 49
0
 74
    0
 49
-6.35
 74
    0
  0
LTYPE
  5
43
330
5
100
AcDbSymbolTableRecord
100
AcDbLinetypeTableRecord
  2
BORDERTINY
 70
    0
  3
Border (.15x) __.__.__.__.__.__.__.__.__.__.__.
 72
   65
 73
    6
 40
6.6675
 49
1.905
 74
    0
 49
-0.9525
 74
    0
 49
1.905
 74
    0
 49
-0.9525
 74
    0
 49
0
 74
    0
 49
-0.9525
 74
    0
  0
LTYPE
  5
44
330
5
100
AcDbSymbolTableRecord
100
AcDbLinetypeTableRecord
  2
BORDER2
 70
    0
  3
Border (.5x) __.__.__.__.__.__.__.__.__.__.__.
 72
   65
 73
    6
 40
22.225
 49
6.35
 74
    0
 49
-3.175
 74
    0
 49
6.35
 74
    0
 49
-3.175
 74
    0
 49
0
 74
    0
 49
-3.175
 74
    0
  0
LTYPE
  5
45
330
5
100
AcDbSymbolTableRecord
100
AcDbLinetypeTableRecord
  2
BORDERX2
 70
    0
  3
Border (2x) ____  ____  .  ____  ____  .  ___
 72
   65
 73
    6
 40
88.89999999999999
 49
25.4
 74
    0
 49
-12.7
 74
    0
 49
25.4
 74
    0
 49
-12.7
 74
    0
 49
0
 74
    0
 49
-12.7
 74
    0
  0
LTYPE
  5
46
330
5
100
AcDbSymbolTableRecord
100
AcDbLinetypeTableRecord
  2
CENTER
 70
    0
  3
Center ____ _ ____ _ ____ _ ____ _ ____ _ ____
 72
   65
 73
    4
 40
50.8
 49
31.75
 74
    0
 49
-6.35
 74
    0
 49
6.35
 74
    0
 49
-6.35
 74
    0
  0
LTYPE
  5
47
330
5
100
AcDbSymbolTableRecord
100
AcDbLinetypeTableRecord
  2
CENTERTINY
 70
    0
  3
Center (.15x) ___ _ ___ _ ___ _ ___ _ ___ _ ___
 72
   65
 73
    4
 40
7.619999999999999
 49
4.7625
 74
    0
 49
-0.9525
 74
    0
 49
0.9525
 74
    0
 49
-0.9525
 74
    0
  0
LTYPE
  5
48
330
5
100
AcDbSymbolTableRecord
100
AcDbLinetypeTableRecord
  2
CENTER2
 70
    0
  3
Center (.5x) ___ _ ___ _ ___ _ ___ _ ___ _ ___
 72
   65
 73
    4
 40
28.575
 49
19.05
 74
    0
 49
-3.175
 74
    0
 49
3.175
 74
    0
 49
-3.175
 74
    0
  0
LTYPE
  5
49
330
5
100
AcDbSymbolTableRecord
100
AcDbLinetypeTableRecord
  2
CENTERX2
 70
    0
  3
Center (2x) ________  __  ________  __  _____
 72
   65
 73
    4
 40
101.6
 49
63.5
 74
    0
 49
-12.7
 74
    0
 49
12.7
 74
    0
 49
-12.7
 74
    0
  0
ENDTAB
  0
TABLE
  2
LAYER
  5
2
330
0
100
AcDbSymbolTable
 70
    1
  0
LAYER
  5
10
330
2
100
AcDbSymbolTableRecord
100
AcDbLayerTableRecord
  2
0
 70
    0
 62
    7
  6
CONTINUOUS
370
    0
390
F
  0
LAYER
  5
4A
330
2
100
AcDbSymbolTableRecord
100
AcDbLayerTableRecord
  2
contour
 70
    0
 62
    5
  6
CONTINUOUS
370
    0
390
F
  0
LAYER
  5
4B
330
2
100
AcDbSymbolTableRecord
100
AcDbLayerTableRecord
  2
pli
 70
    0
 62
    1
  6
CONTINUOUS
370
    0
390
F
  0
ENDTAB
  0
TABLE
  2
STYLE
  5
3
330
0
100
AcDbSymbolTable
 70
    3
  0
STYLE
  5
4C
330
2
100
AcDbSymbolTableRecord
100
AcDbTextStyleTableRecord
  2
Standard
 70
    0
 40
0
 41
1
 50
0
 71
    0
 42
1
  3
txt
  4

  0
ENDTAB
  0
TABLE
  2
VIEW
  5
6
330
0
100
AcDbSymbolTable
 70
    0
  0
ENDTAB
  0
TABLE
  2
UCS
  5
7
330
0
100
AcDbSymbolTable
 70
    0
  0
ENDTAB
  0
TABLE
  2
APPID
  5
9
330
0
100
AcDbSymbolTable
 70
    1
  0
APPID
  5
12
330
9
100
AcDbSymbolTableRecord
100
AcDbRegAppTableRecord
  2
ACAD
 70
    0
  0
APPID
  5
4D
330
9
100
AcDbSymbolTableRecord
100
AcDbRegAppTableRecord
  2
LibreCad
 70
    0
  0
ENDTAB
  0
TABLE
  2
DIMSTYLE
  5
A
330
0
100
AcDbSymbolTable
 70
    1
100
AcDbDimStyleTable
 71
    1
  0
DIMSTYLE
105
4E
330
A
100
AcDbSymbolTableRecord
100
AcDbDimStyleTableRecord
  2
Standard
 70
    0
 40
2.5
 41
2.5
 42
0.625
 43
0.38
 44
1.25
 45
0
 46
0
 47
0
 48
0
 49
1
140
2.5
141
0.09
142
0
143
25.4
144
1
145
0
146
1
147
0.625
148
0
 71
    0
 72
    0
 73
    0
 74
    1
 75
    0
 76
    0
 77
    0
 78
    8
 79
    0
170
    0
171
    2
172
    0
173
    0
174
    0
175
    0
176
    0
177
    0
178
    0
179
    0
271
    2
272
    4
273
    2
274
    2
275
    0
276
    0
277
    2
278
   44
279
    0
280
    0
281
    0
282
    0
283
    1
284
    0
285
    0
286
    0
288
    0
289
    3
340
STANDARD
341

371
   -2
372
   -2
  0
ENDTAB
  0
TABLE
  2
BLOCK_RECORD
  5
1
330
0
100
AcDbSymbolTable
 70
    2
  0
BLOCK_RECORD
  5
1F
330
1
100
AcDbSymbolTableRecord
100
AcDbBlockTableRecord
  2
*Model_Space
 70
    0
280
    1
281
    0
  0
BLOCK_RECORD
  5
1E
330
1
100
AcDbSymbolTableRecord
100
AcDbBlockTableRecord
  2
*Paper_Space
 70
    0
280
    1
281
    0
  0
ENDTAB
  0
ENDSEC
  0
SECTION
  2
BLOCKS
  0
BLOCK
  5
20
330
1F
100
AcDbEntity
  8
0
100
AcDbBlockBegin
  2
*Model_Space
 70
    0
 10
0
 20
0
 30
0
  3
*Model_Space
  1

  0
ENDBLK
  5
21
330
1F
100
AcDbEntity
  8
0
100
AcDbBlockEnd
  0
BLOCK
  5
1C
330
1B
100
AcDbEntity
  8
0
100
AcDbBlockBegin
  2
*Paper_Space
 70
    0
 10
0
 20
0
 30
0
  3
*Paper_Space
  1

  0
ENDBLK
  5
1D
330
1F
100
AcDbEntity
  8
0
100
AcDbBlockEnd
  0
ENDSEC
  0
SECTION
  2
ENTITIES
  0
LINE
  5
4F
100
AcDbEntity
  8
0
  6
ByLayer
 62
  256
370
   -1
100
AcDbLine
 10
-9.625000000000007
 20
-29.62270404531182
 11
9.624999999999993
 21
-29.62270404531182
  0
LINE
  5
50
100
AcDbEntity
  8
0
  6
ByLayer
 62
  256
370
   -1
100
AcDbLine
 10
-9.625000000000011
 20
-29.62270404531182
 11
9.624999999999989
 21
-29.62270404531182
  0
LINE
  5
51
100
AcDbEntity
  8
0
  6
ByLayer
 62
  256
370
   -1
100
AcDbLine
 10
9.624999999999989
 20
-29.62270404531182
 11
25.19857714171773
 21
-18.30783793868172
  0
LINE
  5
52
100
AcDbEntity
  8
0
  6
ByLayer
 62
  256
370
   -1
100
AcDbLine
 10
25.19857714171773
 20
-18.30783793868172
 11
31.14715428343548
 21
-1.06581410364015e-14
  0
LINE
  5
53
100
AcDbEntity
  8
0
  6
ByLayer
 62
  256
370
   -1
100
AcDbLine
 10
31.14715428343548
 20
-1.06581410364015e-14
 11
25.19857714171774
 21
18.3078379386817
  0
LINE
  5
54
100
AcDbEntity
  8
0
  6
ByLayer
 62
  256
370
   -1
100
AcDbLine
 10
25.19857714171774
 20
18.3078379386817
 11
9.625000000000007
 21
29.62270404531181
  0
LINE
  5
55
100
AcDbEntity
  8
0
  6
ByLayer
 62
  256
370
   -1
100
AcDbLine
 10
9.625000000000007
 20
29.62270404531181
 11
-9.624999999999996
 21
29.62270404531182
  0
LINE
  5
56
100
AcDbEntity
  8
0
  6
ByLayer
 62
  256
370
   -1
100
AcDbLine
 10
-9.624999999999996
 20
29.62270404531182
 11
-25.19857714171774
 21
18.30783793868171
  0
LINE
  5
57
100
AcDbEntity
  8
0
  6
ByLayer
 62
  256
370
   -1
100
AcDbLine
 10
-25.19857714171774
 20
18.30783793868171
 11
-31.14715428343548
 21
7.105427357601002e-15
  0
LINE
  5
58
100
AcDbEntity
  8
0
  6
ByLayer
 62
  256
370
   -1
100
AcDbLine
 10
-31.14715428343548
 20
7.105427357601002e-15
 11
-25.19857714171776
 21
-18.3078379386817
  0
LINE
  5
59
100
AcDbEntity
  8
0
  6
ByLayer
 62
  256
370
   -1
100
AcDbLine
 10
-25.19857714171776
 20
-18.3078379386817
 11
-9.625000000000011
 21
-29.62270404531182
  0
LWPOLYLINE
  5
5A
100
AcDbEntity
  8
0
  6
ByLayer
 62
  256
370
   -1
100
AcDbPolyline
 90
    4
 70
    0
 43
0
 10
31.14715428343549
 20
1.835501696080142e-14
 10
49.97649559756123
 20
-4.002300048241861
 10
38.0793413141258
 20
32.61337582912154
 10
25.19857714171776
 20
18.30783793868174
  0
LWPOLYLINE
  5
5B
100
AcDbEntity
  8
0
  6
ByLayer
 62
  256
370
   -1
100
AcDbPolyline
 90
    4
 70
    0
 43
0
 10
9.624999999999984
 20
29.62270404531183
 10
19.24999999999999
 20
46.29369306816226
 10
-19.24999999999999
 20
46.2936930681623
 10
-9.625000000000028
 20
29.62270404531185
  0
LWPOLYLINE
  5
5C
100
AcDbEntity
  8
0
  6
ByLayer
 62
  256
370
   -1
100
AcDbPolyline
 90
    4
 70
    0
 43
0
 10
-25.19857714171775
 20
18.30783793868173
 10
-38.07934131412576
 20
32.61337582912157
 10
-49.97649559756127
 20
-4.002300048241811
 10
-31.1471542834355
 20
1.77635683940025e-14
  0
LWPOLYLINE
  5
5D
100
AcDbEntity
  8
0
  6
ByLayer
 62
  256
370
   -1
100
AcDbPolyline
 90
    4
 70
    0
 43
0
 10
-25.19857714171777
 20
-18.30783793868174
 10
-42.78432720133783
 20
-26.13751831789088
 10
-11.63717291790241
 20
-48.76725053115112
 10
-9.625000000000034
 20
-29.62270404531187
  0
LWPOLYLINE
  5
5E
100
AcDbEntity
  8
0
  6
ByLayer
 62
  256
370
   -1
100
AcDbPolyline
 90
    4
 70
    0
 43
0
 10
9.624999999999998
 20
-29.62270404531184
 10
11.63717291790232
 20
-48.76725053115109
 10
42.7843272013378
 20
-26.13751831789094
 10
25.19857714171775
 20
-18.30783793868174
  0
LWPOLYLINE
  5
5F
100
AcDbEntity
  8
0
  6
ByLayer
 62
  256
370
   -1
100
AcDbPolyline
 90
    3
 70
    0
 43
0
 10
9.624999999999968
 20
29.62270404531186
 10
27.21075005961999
 20
37.45238442452103
 10
25.1985771417177
 20
18.30783793868178
  0
LINE
  5
60
100
AcDbEntity
  8
0
  6
ByLayer
 62
  256
370
   -1
100
AcDbLine
 10
-19.24999999999999
 20
46.29369306816229
 11
19.24999999999999
 21
46.29369306816225
  0
LINE
  5
61
100
AcDbEntity
  8
0
  6
ByLayer
 62
  256
370
   -1
100
AcDbLine
 10
19.24999999999999
 20
46.29369306816225
 11
3.804530520363385e-14
 21
79.63567111386315
  0
LINE
  5
62
100
AcDbEntity
  8
0
  6
ByLayer
 62
  256
370
   -1
100
AcDbLine
 10
3.804530520363385e-14
 20
79.63567111386315
 11
-19.24999999999999
 21
46.29369306816229
  0
LINE
  5
63
100
AcDbEntity
  8
0
  6
ByLayer
 62
  256
370
   -1
100
AcDbLine
 10
-49.97649559756128
 20
-4.002300048241811
 11
-38.07934131412576
 21
32.61337582912157
  0
LINE
  5
64
100
AcDbEntity
  8
0
  6
ByLayer
 62
  256
370
   -1
100
AcDbLine
 10
-38.07934131412576
 20
32.61337582912157
 11
-75.73802394237725
 21
24.60877573263791
  0
LINE
  5
65
100
AcDbEntity
  8
0
  6
ByLayer
 62
  256
370
   -1
100
AcDbLine
 10
-75.73802394237725
 20
24.60877573263791
 11
-49.97649559756128
 21
-4.002300048241811
  0
LINE
  5
66
100
AcDbEntity
  8
0
  6
ByLayer
 62
  256
370
   -1
100
AcDbLine
 10
-11.6371729179024
 20
-48.76725053115111
 11
-42.78432720133783
 21
-26.13751831789088
  0
LINE
  5
67
100
AcDbEntity
  8
0
  6
ByLayer
 62
  256
370
   -1
100
AcDbLine
 10
-42.78432720133783
 20
-26.13751831789088
 11
-46.80867303714255
 21
-64.42661128956937
  0
LINE
  5
68
100
AcDbEntity
  8
0
  6
ByLayer
 62
  256
370
   -1
100
AcDbLine
 10
-46.80867303714255
 20
-64.42661128956937
 11
-11.6371729179024
 21
-48.76725053115111
  0
LINE
  5
69
100
AcDbEntity
  8
0
  6
ByLayer
 62
  256
370
   -1
100
AcDbLine
 10
42.7843272013378
 20
-26.13751831789094
 11
11.63717291790231
 21
-48.7672505311511
  0
LINE
  5
6A
100
AcDbEntity
  8
0
  6
ByLayer
 62
  256
370
   -1
100
AcDbLine
 10
11.63717291790231
 20
-48.7672505311511
 11
46.8086730371424
 21
-64.42661128956945
  0
LINE
  5
6B
100
AcDbEntity
  8
0
  6
ByLayer
 62
  256
370
   -1
100
AcDbLine
 10
46.8086730371424
 20
-64.42661128956945
 11
42.7843272013378
 21
-26.13751831789094
  0
LINE
  5
6C
100
AcDbEntity
  8
0
  6
ByLayer
 62
  256
370
   -1
100
AcDbLine
 10
38.0793413141258
 20
32.61337582912154
 11
49.97649559756123
 21
-4.002300048241864
  0
LINE
  5
6D
100
AcDbEntity
  8
0
  6
ByLayer
 62
  256
370
   -1
100
AcDbLine
 10
49.97649559756123
 20
-4.002300048241864
 11
75.7380239423773
 21
24.60877573263777
  0
LINE
  5
6E
100
AcDbEntity
  8
0
  6
ByLayer
 62
  256
370
   -1
100
AcDbLine
 10
27.21075005961999
 20
37.45238442452103
 11
34.42018614409425
 21
28.54947230358261
  0
LINE
  5
6F
100
AcDbEntity
  8
0
  6
ByLayer
 62
  256
370
   -1
100
AcDbLine
 10
27.21075005961999
 20
37.45238442452102
 11
16.515739203036
 21
41.55781444667691
  0
LWPOLYLINE
  5
70
100
AcDbEntity
  8
0
  6
ByLayer
 62
  256
370
   -1
100
AcDbPolyline
 90
    3
 70
    0
 43
0
 10
-25.19857714171776
 20
18.30783793868172
 10
-27.21075005962012
 20
37.45238442452094
 10
-9.625000000000055
 20
29.62270404531183
  0
LINE
  5
71
100
AcDbEntity
  8
0
  6
ByLayer
 62
  256
370
   -1
100
AcDbLine
 10
-27.21075005962012
 20
37.45238442452094
 11
-16.51573920303601
 21
41.55781444667693
  0
LINE
  5
72
100
AcDbEntity
  8
0
  6
ByLayer
 62
  256
370
   -1
100
AcDbLine
 10
-27.21075005962012
 20
37.45238442452094
 11
-34.42018614409425
 21
28.54947230358261
  0
LWPOLYLINE
  5
73
100
AcDbEntity
  8
0
  6
ByLayer
 62
  256
370
   -1
100
AcDbPolyline
 90
    3
 70
    0
 43
0
 10
-25.1985771417178
 20
-18.30783793868167
 10
-44.02791845584353
 20
-14.30553789043984
 10
-31.14715428343555
 20
1.068981106747107e-14
  0
LINE
  5
74
100
AcDbEntity
  8
0
  6
ByLayer
 62
  256
370
   -1
100
AcDbLine
 10
-44.02791845584353
 20
-14.30553789043984
 11
-44.62747432089968
 21
-2.865330477374796
  0
LINE
  5
75
100
AcDbEntity
  8
0
  6
ByLayer
 62
  256
370
   -1
100
AcDbLine
 10
-44.02791845584352
 20
-14.30553789043984
 11
-37.7885841391845
 21
-23.91327020218904
  0
LWPOLYLINE
  5
76
100
AcDbEntity
  8
0
  6
ByLayer
 62
  256
370
   -1
100
AcDbPolyline
 90
    3
 70
    0
 43
0
 10
9.62499999999995
 20
-29.62270404531176
 10
-1.06581410364015e-14
 20
-46.29369306816217
 10
-9.625000000000028
 20
-29.62270404531177
  0
LINE
  5
77
100
AcDbEntity
  8
0
  6
ByLayer
 62
  256
370
   -1
100
AcDbLine
 10
-1.06581410364015e-14
 20
-46.29369306816217
 11
-11.06555675934317
 21
-43.32868607069545
  0
LINE
  5
78
100
AcDbEntity
  8
0
  6
ByLayer
 62
  256
370
   -1
100
AcDbLine
 10
-1.06581410364015e-14
 20
-46.29369306816217
 11
11.065556759343
 21
-43.32868607069544
  0
LWPOLYLINE
  5
79
100
AcDbEntity
  8
0
  6
ByLayer
 62
  256
370
   -1
100
AcDbPolyline
 90
    3
 70
    0
 43
0
 10
31.14715428343544
 20
2.009781301416641e-14
 10
44.02791845584345
 20
-14.30553789043978
 10
25.19857714171772
 20
-18.30783793868168
  0
LINE
  5
7A
100
AcDbEntity
  8
0
  6
ByLayer
 62
  256
370
   -1
100
AcDbLine
 10
44.02791845584345
 20
-14.30553789043978
 11
37.78858413918439
 21
-23.91327020218911
  0
LINE
  5
7B
100
AcDbEntity
  8
0
  6
ByLayer
 62
  256
370
   -1
100
AcDbLine
 10
44.02791845584345
 20
-14.30553789043977
 11
44.62747432089955
 21
-2.865330477374869
  0
LINE
  5
7C
100
AcDbEntity
  8
0
  6
ByLayer
 62
  256
370
   -1
100
AcDbLine
 10
-75.73802394237725
 20
24.60877573263791
 11
-76.33013769532558
 21
13.3105722779479
  0
LINE
  5
7D
100
AcDbEntity
  8
0
  6
ByLayer
 62
  256
370
   -1
100
AcDbLine
 10
-49.97649559756128
 20
-4.002300048241819
 11
-61.27469905225129
 21
-3.410186295293508
  0
LINE
  5
7E
100
AcDbEntity
  8
0
  6
ByLayer
 62
  256
370
   -1
100
AcDbLine
 10
-76.33013769532558
 20
13.3105722779479
 11
-61.27469905225129
 21
-3.410186295293508
  0
LINE
  5
7F
100
AcDbEntity
  8
0
  6
ByLayer
 62
  256
370
   -1
100
AcDbLine
 10
-46.80867303714258
 20
-64.42661128956938
 11
-36.2464162313954
 21
-68.48108180610382
  0
LINE
  5
80
100
AcDbEntity
  8
0
  6
ByLayer
 62
  256
370
   -1
100
AcDbLine
 10
-11.63717291790243
 20
-48.76725053115116
 11
-15.69164343443685
 21
-59.32950733689835
  0
LINE
  5
81
100
AcDbEntity
  8
0
  6
ByLayer
 62
  256
370
   -1
100
AcDbLine
 10
-36.2464162313954
 20
-68.48108180610382
 11
-15.69164343443685
 21
-59.32950733689835
  0
LINE
  5
82
100
AcDbEntity
  8
0
  6
ByLayer
 62
  256
370
   -1
100
AcDbLine
 10
46.80867303714243
 20
-64.42661128956946
 11
53.92862049394741
 21
-55.63420842048207
  0
LINE
  5
83
100
AcDbEntity
  8
0
  6
ByLayer
 62
  256
370
   -1
100
AcDbLine
 10
42.78432720133786
 20
-26.13751831789093
 11
51.57673007042526
 21
-33.2574657746959
  0
LINE
  5
84
100
AcDbEntity
  8
0
  6
ByLayer
 62
  256
370
   -1
100
AcDbLine
 10
53.92862049394741
 20
-55.63420842048207
 11
51.57673007042526
 21
-33.2574657746959
  0
LINE
  5
85
100
AcDbEntity
  8
0
  6
ByLayer
 62
  256
370
   -1
100
AcDbLine
 10
38.07934131412577
 20
32.61337582912158
 11
47.5678156465383
 21
38.77526310844992
  0
LINE
  5
86
100
AcDbEntity
  8
0
  6
ByLayer
 62
  256
370
   -1
100
AcDbLine
 10
75.73802394237725
 20
24.60877573263773
 11
38.0793413141258
 21
32.61337582912154
  0
LINE
  5
87
100
AcDbEntity
  8
0
  6
ByLayer
 62
  256
370
   -1
100
AcDbLine
 10
63.84770673473898
 20
35.31486543437951
 11
47.5678156465383
 21
38.77526310844992
  0
LINE
  5
88
100
AcDbEntity
  8
0
  6
ByLayer
 62
  256
370
   -1
100
AcDbLine
 10
75.73802394237731
 20
24.60877573263775
 11
63.84770673473898
 21
35.31486543437951
  0
LINE
  5
89
100
AcDbEntity
  8
0
  6
ByLayer
 62
  256
370
   -1
100
AcDbLine
 10
-38.07934131412576
 20
32.61337582912159
 11
-47.56781564653829
 21
38.77526310844992
  0
LINE
  5
8A
100
AcDbEntity
  8
0
  6
ByLayer
 62
  256
370
   -1
100
AcDbLine
 10
-63.84770673473896
 20
35.31486543437954
 11
-47.56781564653829
 21
38.77526310844992
  0
LINE
  5
8B
100
AcDbEntity
  8
0
  6
ByLayer
 62
  256
370
   -1
100
AcDbLine
 10
-75.7380239423773
 20
24.60877573263777
 11
-63.84770673473896
 21
35.31486543437954
  0
LWPOLYLINE
  5
8C
100
AcDbEntity
  8
contour
  6
ByLayer
 62
  256
370
   -1
100
AcDbPolyline
 90
   41
 70
    0
 43
0
 10
-11.06555675934317
 20
-43.32868607069545
 10
0
 20
-46.29369306816217
 10
11.065556759343
 20
-43.32868607069544
 10
11.63717291790231
 20
-48.7672505311511
 10
46.8086730371424
 20
-64.42661128956945
 10
53.92862049394741
 20
-55.63420842048208
 10
51.57673007042526
 20
-33.2574657746959
 10
42.78432720133786
 20
-26.13751831789093
 10
37.78858413918439
 20
-23.91327020218911
 10
44.02791845584345
 20
-14.30553789043978
 10
44.62747432089955
 20
-2.865330477374858
 10
49.97649559756123
 20
-4.002300048241864
 10
75.73802394237734
 20
24.60877573263772
 10
63.84770673473898
 20
35.31486543437951
 10
47.5678156465383
 20
38.77526310844992
 10
38.07934131412593
 20
32.61337582912169
 10
34.42018614409425
 20
28.54947230358261
 10
27.21075005961999
 20
37.45238442452102
 10
16.51573920303601
 20
41.55781444667689
 10
19.24999999999998
 20
46.29369306816227
 10
3.804530520363385e-14
 20
79.63567111386315
 10
-19.24999999999998
 20
46.2936930681623
 10
-16.51573920303601
 20
41.55781444667693
 10
-27.21075005962012
 20
37.45238442452094
 10
-34.42018614409424
 20
28.54947230358262
 10
-38.07934131412581
 20
32.61337582912162
 10
-47.56781564653829
 20
38.77526310844992
 10
-63.84770673473898
 20
35.31486543437953
 10
-75.7380239423773
 20
24.60877573263777
 10
-76.33013769532559
 20
13.31057227794789
 10
-61.27469905225129
 20
-3.410186295293508
 10
-49.97649559756127
 20
-4.002300048241811
 10
-44.62747432089968
 20
-2.865330477374843
 10
-44.02791845584353
 20
-14.30553789043984
 10
-37.7885841391845
 20
-23.91327020218904
 10
-42.78432720133784
 20
-26.13751831789089
 10
-46.80867303714258
 20
-64.42661128956938
 10
-36.2464162313954
 20
-68.4810818061038
 10
-15.69164343443685
 20
-59.32950733689835
 10
-11.63717291790243
 20
-48.76725053115116
 10
-11.06555675934312
 20
-43.32868607069546
  0
LINE
  5
8D
100
AcDbEntity
  8
contour
  6
ByLayer
 62
  256
370
   -1
100
AcDbLine
 10
-11.06555675934317
 20
-43.32868607069545
 11
-9.625000000000034
 21
-29.62270404531187
  0
LINE
  5
8E
100
AcDbEntity
  8
contour
  6
ByLayer
 62
  256
370
   -1
100
AcDbLine
 10
11.065556759343
 20
-43.32868607069544
 11
9.624999999999915
 21
-29.62270404531182
  0
LINE
  5
8F
100
AcDbEntity
  8
contour
  6
ByLayer
 62
  256
370
   -1
100
AcDbLine
 10
37.78858413918439
 20
-23.91327020218911
 11
25.19857714171775
 21
-18.30783793868174
  0
LINE
  5
90
100
AcDbEntity
  8
contour
  6
ByLayer
 62
  256
370
   -1
100
AcDbLine
 10
44.62747432089955
 20
-2.865330477374858
 11
31.14715428343549
 21
1.764905477000138e-14
  0
LINE
  5
91
100
AcDbEntity
  8
contour
  6
ByLayer
 62
  256
370
   -1
100
AcDbLine
 10
34.42018614409425
 20
28.54947230358261
 11
25.19857714171776
 21
18.30783793868174
  0
LINE
  5
92
100
AcDbEntity
  8
contour
  6
ByLayer
 62
  256
370
   -1
100
AcDbLine
 10
16.51573920303601
 20
41.55781444667689
 11
9.625000000000014
 21
29.62270404531188
  0
LINE
  5
93
100
AcDbEntity
  8
contour
  6
ByLayer
 62
  256
370
   -1
100
AcDbLine
 10
-16.51573920303603
 20
41.55781444667692
 11
-9.625000000000028
 21
29.62270404531185
  0
LINE
  5
94
100
AcDbEntity
  8
contour
  6
ByLayer
 62
  256
370
   -1
100
AcDbLine
 10
-34.42018614409424
 20
28.54947230358262
 11
-25.19857714171776
 21
18.30783793868174
  0
LINE
  5
95
100
AcDbEntity
  8
contour
  6
ByLayer
 62
  256
370
   -1
100
AcDbLine
 10
-44.62747432089967
 20
-2.865330477374841
 11
-31.14715428343543
 21
1.380932587225919e-13
  0
LINE
  5
96
100
AcDbEntity
  8
contour
  6
ByLayer
 62
  256
370
   -1
100
AcDbLine
 10
-37.78858413918446
 20
-23.9132702021891
 11
-25.1985771417178
 21
-18.30783793868167
  0
LWPOLYLINE
  5
97
100
AcDbEntity
  8
pli
  6
ByLayer
 62
  256
370
   -1
100
AcDbPolyline
 90
   16
 70
    0
 43
0
 10
-9.624999999999989
 20
-29.62270404531184
 10
2.842170943040401e-14
 20
-46.29369306816216
 10
9.624999999999865
 20
-29.62270404531191
 10
25.19857714171775
 20
-18.30783793868174
 10
44.02791845584345
 20
-14.30553789043978
 10
31.14715428343544
 20
2.009781301416641e-14
 10
25.1985771417177
 20
18.30783793868173
 10
27.21075005961999
 20
37.45238442452102
 10
9.625000000000014
 20
29.62270404531188
 10
-9.625000000000055
 20
29.62270404531183
 10
-27.21075005962012
 20
37.45238442452094
 10
-25.19857714171773
 20
18.30783793868171
 10
-31.14715428343543
 20
1.380932587225919e-13
 10
-44.02791845584353
 20
-14.30553789043983
 10
-25.19857714171782
 20
-18.30783793868166
 10
-9.625000000000034
 20
-29.62270404531187
  0
LINE
  5
98
100
AcDbEntity
  8
pli
  6
ByLayer
 62
  256
370
   -1
100
AcDbLine
 10
-9.625000000000028
 20
-29.62270404531177
 11
9.62499999999995
 21
-29.62270404531176
  0
LINE
  5
99
100
AcDbEntity
  8
pli
  6
ByLayer
 62
  256
370
   -1
100
AcDbLine
 10
25.19857714171775
 20
-18.30783793868174
 11
31.14715428343547
 21
-5.733480545674851e-14
  0
LINE
  5
9A
100
AcDbEntity
  8
pli
  6
ByLayer
 62
  256
370
   -1
100
AcDbLine
 10
25.1985771417177
 20
18.30783793868173
 11
9.625000000000007
 21
29.62270404531181
  0
LINE
  5
9B
100
AcDbEntity
  8
pli
  6
ByLayer
 62
  256
370
   -1
100
AcDbLine
 10
-9.624999999999986
 20
29.62270404531182
 11
-25.19857714171772
 21
18.30783793868172
  0
LINE
  5
9C
100
AcDbEntity
  8
pli
  6
ByLayer
 62
  256
370
   -1
100
AcDbLine
 10
-31.14715428343548
 20
-9.555800909458173e-15
 11
-25.19857714171777
 21
-18.30783793868166
  0
LINE
  5
9D
100
AcDbEntity
  8
pli
  6
ByLayer
 62
  256
370
   -1
100
AcDbLine
 10
-42.78432720133785
 20
-26.13751831789089
 11
-11.63717291790243
 21
-48.76725053115116
  0
LINE
  5
9E
100
AcDbEntity
  8
pli
  6
ByLayer
 62
  256
370
   -1
100
AcDbLine
 10
-11.63717291790243
 20
-48.76725053115116
 11
-46.80867303714255
 21
-64.42661128956937
  0
LINE
  5
9F
100
AcDbEntity
  8
pli
  6
ByLayer
 62
  256
370
   -1
100
AcDbLine
 10
11.63717291790232
 20
-48.76725053115109
 11
42.7843272013378
 21
-26.13751831789094
  0
LINE
  5
A0
100
AcDbEntity
  8
pli
  6
ByLayer
 62
  256
370
   -1
100
AcDbLine
 10
42.7843272013378
 20
-26.13751831789094
 11
46.8086730371424
 21
-64.42661128956945
  0
LINE
  5
A1
100
AcDbEntity
  8
pli
  6
ByLayer
 62
  256
370
   -1
100
AcDbLine
 10
49.97649559756123
 20
-4.002300048241859
 11
38.07934131412593
 21
32.61337582912169
  0
LINE
  5
A2
100
AcDbEntity
  8
pli
  6
ByLayer
 62
  256
370
   -1
100
AcDbLine
 10
38.07934131412593
 20
32.61337582912169
 11
75.73802394237725
 21
24.60877573263773
  0
LINE
  5
A3
100
AcDbEntity
  8
pli
  6
ByLayer
 62
  256
370
   -1
100
AcDbLine
 10
19.24999999999998
 20
46.29369306816227
 11
-19.24999999999998
 21
46.2936930681623
  0
LINE
  5
A4
100
AcDbEntity
  8
pli
  6
ByLayer
 62
  256
370
   -1
100
AcDbLine
 10
-38.07934131412576
 20
32.61337582912157
 11
-49.9764955975613
 21
-4.002300048241819
  0
LINE
  5
A5
100
AcDbEntity
  8
pli
  6
ByLayer
 62
  256
370
   -1
100
AcDbLine
 10
-49.9764955975613
 20
-4.002300048241819
 11
-75.7380239423772
 21
24.60877573263786
  0
LINE
  5
A6
100
AcDbEntity
  8
pli
  6
ByLayer
 62
  256
370
   -1
100
AcDbLine
 10
-75.7380239423772
 20
24.60877573263786
 11
-38.07934131412576
 21
32.61337582912157
  0
ENDSEC
  0
SECTION
  2
OBJECTS
  0
DICTIONARY
  5
C
330
0
100
AcDbDictionary
281
    1
  3
ACAD_GROUP
350
D
  0
DICTIONARY
  5
D
330
C
100
AcDbDictionary
281
    1
  0
ENDSEC
  0
EOF
